%YAML 1.1
%TAG !u! tag:unity3d.com,2011:
--- !u!1 &100000
GameObject:
  m_ObjectHideFlags: 0
  m_PrefabParentObject: {fileID: 0}
  m_PrefabInternal: {fileID: 100100000}
  serializedVersion: 4
  m_Component:
  - 4: {fileID: 400000}
  - 114: {fileID: 11400000}
  m_Layer: 0
  m_Name: PFUDOR
  m_TagString: Untagged
  m_Icon: {fileID: 0}
  m_NavMeshLayer: 0
  m_StaticEditorFlags: 0
  m_IsActive: 1
--- !u!4 &400000
Transform:
  m_ObjectHideFlags: 1
  m_PrefabParentObject: {fileID: 0}
  m_PrefabInternal: {fileID: 100100000}
  m_GameObject: {fileID: 100000}
  m_LocalRotation: {x: 0, y: 0, z: 0, w: 1}
  m_LocalPosition: {x: 0, y: 0, z: 0}
  m_LocalScale: {x: 1, y: 1, z: 1}
  m_Children: []
  m_Father: {fileID: 0}
--- !u!114 &11400000
MonoBehaviour:
  m_ObjectHideFlags: 1
  m_PrefabParentObject: {fileID: 0}
  m_PrefabInternal: {fileID: 100100000}
  m_GameObject: {fileID: 100000}
  m_Enabled: 1
  m_EditorHideFlags: 0
  m_Script: {fileID: 11500000, guid: 4d0c51bb0b6e93049af5e88f93826e3b, type: 3}
  m_Name: 
  m_EditorClassIdentifier: 
  material: {fileID: 2100000, guid: 809926b2368c7b74db4c9279952cf592, type: 2}
  mSprites:
  - name: circle
    x: 571
    y: 38
    width: 154
    height: 154
    borderLeft: 0
    borderRight: 0
    borderTop: 0
    borderBottom: 0
    paddingLeft: 0
    paddingRight: 0
    paddingTop: 0
    paddingBottom: 0
  - name: g_0
    x: 0
    y: 347
    width: 1023
    height: 677
    borderLeft: 0
    borderRight: 0
    borderTop: 0
    borderBottom: 0
    paddingLeft: 0
    paddingRight: 1
    paddingTop: 0
    paddingBottom: 347
  - name: GooglePlusLogo
    x: 241
    y: 122
    width: 80
    height: 74
    borderLeft: 0
    borderRight: 0
    borderTop: 0
    borderBottom: 0
    paddingLeft: 0
    paddingRight: 0
    paddingTop: 0
    paddingBottom: 0
  - name: GooglePlusRed
    x: 0
    y: 13
    width: 32
    height: 32
    borderLeft: 0
    borderRight: 0
    borderTop: 0
    borderBottom: 0
    paddingLeft: 0
    paddingRight: 0
    paddingTop: 0
    paddingBottom: 0
  - name: Icon-Grey-Achievement
    x: 726
    y: 65
    width: 66
    height: 78
    borderLeft: 0
    borderRight: 0
    borderTop: 0
    borderBottom: 0
    paddingLeft: 20
    paddingRight: 18
    paddingTop: 12
    paddingBottom: 14
  - name: Icon-Grey-Close
    x: 445
    y: 11
    width: 62
    height: 62
    borderLeft: 0
    borderRight: 0
    borderTop: 0
    borderBottom: 0
    paddingLeft: 21
    paddingRight: 21
    paddingTop: 22
    paddingBottom: 21
  - name: Icon-Grey-LeaderBoard
    x: 241
    y: 58
    width: 90
    height: 64
    borderLeft: 0
    borderRight: 0
    borderTop: 0
    borderBottom: 0
    paddingLeft: 6
    paddingRight: 8
    paddingTop: 14
    paddingBottom: 26
  - name: Icon-Grey-Mute
    x: 371
    y: 72
    width: 74
    height: 75
    borderLeft: 0
    borderRight: 0
    borderTop: 0
    borderBottom: 0
    paddingLeft: 16
    paddingRight: 14
    paddingTop: 16
    paddingBottom: 13
  - name: Icon-Grey-Next
    x: 515
    y: 81
    width: 56
    height: 66
    borderLeft: 0
    borderRight: 0
    borderTop: 0
    borderBottom: 0
    paddingLeft: 19
    paddingRight: 19
    paddingTop: 18
    paddingBottom: 18
  - name: Icon-Grey-Pause
    x: 371
    y: 2
    width: 62
    height: 70
    borderLeft: 0
    borderRight: 0
    borderTop: 0
    borderBottom: 0
    paddingLeft: 21
    paddingRight: 21
    paddingTop: 17
    paddingBottom: 17
  - name: Icon-Grey-Sound
    x: 445
    y: 73
    width: 70
    height: 74
    borderLeft: 0
    borderRight: 0
    borderTop: 0
    borderBottom: 0
    paddingLeft: 17
    paddingRight: 17
    paddingTop: 15
    paddingBottom: 15
  - name: oval
    x: 0
    y: 45
    width: 241
    height: 151
    borderLeft: 0
    borderRight: 0
    borderTop: 0
    borderBottom: 0
    paddingLeft: 1
    paddingRight: 3
    paddingTop: 1
    paddingBottom: 3
  - name: rainbow
    x: 726
    y: 143
    width: 99
    height: 204
    borderLeft: 0
    borderRight: 0
    borderTop: 0
    borderBottom: 0
    paddingLeft: 0
    paddingRight: 0
    paddingTop: 0
    paddingBottom: 0
  - name: rect
    x: 0
    y: 196
    width: 371
    height: 151
    borderLeft: 0
    borderRight: 0
    borderTop: 0
    borderBottom: 0
    paddingLeft: 1
    paddingRight: 3
    paddingTop: 1
    paddingBottom: 3
  - name: spin
    x: 371
    y: 147
    width: 200
    height: 200
    borderLeft: 0
    borderRight: 0
    borderTop: 0
    borderBottom: 0
    paddingLeft: 0
    paddingRight: 0
    paddingTop: 0
    paddingBottom: 0
  - name: square
    x: 571
    y: 192
    width: 155
    height: 155
    borderLeft: 40
    borderRight: 40
    borderTop: 56
    borderBottom: 56
    paddingLeft: 0
    paddingRight: 0
    paddingTop: 0
    paddingBottom: 0
  mPixelSize: 1
  mReplacement: {fileID: 0}
  mCoordinates: 0
  sprites: []
--- !u!1001 &100100000
Prefab:
  m_ObjectHideFlags: 1
  serializedVersion: 2
  m_Modification:
    m_TransformParent: {fileID: 0}
    m_Modifications: []
    m_RemovedComponents: []
  m_ParentPrefab: {fileID: 0}
  m_RootGameObject: {fileID: 100000}
  m_IsPrefabParent: 1
  m_IsExploded: 1
